^C:\USERS\LASSA\SOURCE\REPOS\HOMEWORK 15.4\X64\DEBUG\HOMEWORK 15.4.OBJ
C:\USERS\LASSA\SOURCE\REPOS\HOMEWORK 15.4\X64\DEBUG\HOMEWORK 15.4.EXE
C:\USERS\LASSA\SOURCE\REPOS\HOMEWORK 15.4\X64\DEBUG\HOMEWORK 15.4.ILK
C:\USERS\LASSA\SOURCE\REPOS\HOMEWORK 15.4\X64\DEBUG\HOMEWORK 15.4.PDB
